<svg width="7" height="11" viewBox="0 0 7 11" fill="none" xmlns="http://www.w3.org/2000/svg">
<path d="M0.645996 0.926018L1.354 0.218018L6.422 5.28601L1.354 10.354L0.645996 9.64601L5.008 5.28601L0.645996 0.926018Z" fill="#8C8C8C"/>
</svg>
