<svg width="60" height="50" viewBox="0 0 60 50" fill="none" xmlns="http://www.w3.org/2000/svg">
<path d="M54.3992 49.033H5.60082C3.67718 49.033 2.11765 47.4735 2.11765 45.5497L0 4.44985C0 2.52609 1.55953 0.966675 3.48318 0.966675H56.5167C58.4405 0.966675 59.9999 2.5262 59.9999 4.44985L57.8822 45.5497C57.8824 47.4735 56.3228 49.033 54.3992 49.033Z" fill="url(#paint0_linear_33_313)"/>
<path d="M56.5168 49.033H3.48318C1.55953 49.033 0 47.4735 0 45.5497C0 44.5782 0.401177 43.6499 1.10859 42.9841L27.2951 18.3411C28.8148 16.911 31.1852 16.911 32.7049 18.3411L58.8914 42.9841C59.5989 43.6499 60 44.5782 60 45.5497C60 47.4735 58.4405 49.033 56.5168 49.033Z" fill="url(#paint1_linear_33_313)"/>
<path d="M0.498047 36.5248V45.5496C0.498047 47.4734 2.03169 49.0328 3.92346 49.0328H56.0762C57.9679 49.0328 59.5016 47.4733 59.5016 45.5496V36.5248H0.498047Z" fill="url(#paint2_linear_33_313)"/>
<path d="M0 4.44997V45.5499C0 47.4736 1.55953 49.033 3.48318 49.033H5.73729V0.966675H3.48318C1.55953 0.966675 0 2.5262 0 4.44997H0Z" fill="url(#paint3_linear_33_313)"/>
<path d="M1.22626 7.01556L46.1177 49.0331H56.5169C58.4406 49.0331 60 47.4736 60 45.5499V4.45003C60 2.52627 58.4405 1.20215 56.5169 1.20215H3.48321C1.55956 1.20203 0.117676 2.52627 0.117676 4.45003C0.117676 5.42144 0.518852 6.3498 1.22626 7.01556Z" fill="url(#paint4_linear_33_313)"/>
<path d="M60 4.44997V45.5499C60 47.4736 58.4405 49.033 56.5168 49.033H54.2627V0.966675H56.5168C58.4405 0.966675 60 2.5262 60 4.44997Z" fill="url(#paint5_linear_33_313)"/>
<path d="M56.5168 1.20203H54.2627V22.4957H60V4.68532C60 2.76156 58.4405 1.20203 56.5168 1.20203Z" fill="url(#paint6_linear_33_313)"/>
<path d="M3.48318 1.20203H5.73729V22.4957H0V4.68532C0 2.76156 1.55953 1.20203 3.48318 1.20203Z" fill="url(#paint7_linear_33_313)"/>
<path d="M56.5168 0.966675H3.48318C1.55953 0.966675 0 2.5262 0 4.44997C0 5.4215 0.401177 5.99691 1.10859 6.66268L27.2951 31.3056C28.8148 32.7357 31.1852 32.7357 32.7049 31.3056L58.8914 6.66256C59.5988 5.99679 60 5.42138 60 4.44997C60 2.5262 58.4405 0.966675 56.5168 0.966675Z" fill="url(#paint8_linear_33_313)"/>
<path d="M56.4445 0.966675C56.3058 0.966675 56.1724 1.01962 56.0715 1.11456L32.7054 23.1035C31.1856 24.5336 28.8152 24.5336 27.2955 23.1035L3.92948 1.11468C3.82854 1.01962 3.69501 0.966675 3.55642 0.966675C1.77913 0.966675 0.233128 2.27009 0.0248923 4.03515C-0.10699 5.15315 0.301481 6.2555 1.10913 7.0155L27.2956 31.6584C28.8154 33.0886 31.1857 33.0886 32.7055 31.6584L58.892 7.0155C59.6996 6.25538 60.1081 5.15315 59.9762 4.03515C59.7678 2.27009 58.2218 0.966675 56.4445 0.966675Z" fill="url(#paint9_linear_33_313)"/>
<defs>
<linearGradient id="paint0_linear_33_313" x1="25.7615" y1="13.6276" x2="44.7377" y2="54.3655" gradientUnits="userSpaceOnUse">
<stop stop-color="#E3E5E4"/>
<stop offset="1" stop-color="#CBD0E4"/>
</linearGradient>
<linearGradient id="paint1_linear_33_313" x1="24.358" y1="39.8995" x2="34.1592" y2="49.7007" gradientUnits="userSpaceOnUse">
<stop stop-color="#EBEFF0"/>
<stop offset="1" stop-color="#E3E5E4"/>
</linearGradient>
<linearGradient id="paint2_linear_33_313" x1="29.9998" y1="41.4817" x2="29.9998" y2="51.5462" gradientUnits="userSpaceOnUse">
<stop stop-color="#CBD0E4" stop-opacity="0"/>
<stop offset="1" stop-color="#6A7D83"/>
</linearGradient>
<linearGradient id="paint3_linear_33_313" x1="2.03918" y1="24.9999" x2="6.82612" y2="24.9999" gradientUnits="userSpaceOnUse">
<stop stop-color="#FF637B"/>
<stop offset="1" stop-color="#F90217"/>
</linearGradient>
<linearGradient id="paint4_linear_33_313" x1="49.407" y1="24.8884" x2="42.0344" y2="17.1237" gradientUnits="userSpaceOnUse">
<stop stop-color="#CBD0E4" stop-opacity="0"/>
<stop offset="1" stop-color="#6A7D83"/>
</linearGradient>
<linearGradient id="paint5_linear_33_313" x1="56.8627" y1="24.9999" x2="60.549" y2="24.9999" gradientUnits="userSpaceOnUse">
<stop stop-color="#FF637B"/>
<stop offset="1" stop-color="#F90217"/>
</linearGradient>
<linearGradient id="paint6_linear_33_313" x1="58.9137" y1="14.9467" x2="53.9726" y2="9.3585" gradientUnits="userSpaceOnUse">
<stop stop-color="#F90217" stop-opacity="0"/>
<stop offset="0.2669" stop-color="#E7010F" stop-opacity="0.267"/>
<stop offset="0.7232" stop-color="#CE0004" stop-opacity="0.723"/>
<stop offset="1" stop-color="#C50000"/>
</linearGradient>
<linearGradient id="paint7_linear_33_313" x1="1.08624" y1="14.9467" x2="6.02741" y2="9.3585" gradientUnits="userSpaceOnUse">
<stop stop-color="#F90217" stop-opacity="0"/>
<stop offset="0.2669" stop-color="#E7010F" stop-opacity="0.267"/>
<stop offset="0.7232" stop-color="#CE0004" stop-opacity="0.723"/>
<stop offset="1" stop-color="#C50000"/>
</linearGradient>
<linearGradient id="paint8_linear_33_313" x1="27.5772" y1="1.35997" x2="40.7281" y2="17.3164" gradientUnits="userSpaceOnUse">
<stop stop-color="#EBEFF0"/>
<stop offset="1" stop-color="#E3E5E4"/>
</linearGradient>
<linearGradient id="paint9_linear_33_313" x1="30.7094" y1="5.65562" x2="45.9251" y2="31.3027" gradientUnits="userSpaceOnUse">
<stop stop-color="#FF637B"/>
<stop offset="1" stop-color="#F90217"/>
</linearGradient>
</defs>
</svg>
