<svg width="20" height="18" viewBox="0 0 20 18" fill="none" xmlns="http://www.w3.org/2000/svg">
<path d="M10 17.992C9.35502 17.4203 8.62602 16.8256 7.85502 16.1929H7.84502C5.13002 13.974 2.05302 11.4633 0.694023 8.45484C0.24754 7.49705 0.0109268 6.45498 1.1406e-05 5.39839C-0.00297039 3.94861 0.578794 2.55881 1.61383 1.54311C2.64887 0.527406 4.04981 -0.0284668 5.50002 0.00112371C6.68065 0.00298757 7.83586 0.344031 8.82802 0.983626C9.26399 1.26645 9.65844 1.60856 10 2.00011C10.3435 1.6101 10.7381 1.26819 11.173 0.983626C12.1648 0.343905 13.3197 0.00284139 14.5 0.00112371C15.9502 -0.0284668 17.3512 0.527406 18.3862 1.54311C19.4213 2.55881 20.003 3.94861 20 5.39839C19.9898 6.45667 19.7532 7.50052 19.306 8.45984C17.947 11.4683 14.871 13.978 12.156 16.1929L12.146 16.2009C11.374 16.8296 10.646 17.4243 10.001 18L10 17.992ZM5.50002 2.00011C4.56853 1.98846 3.6701 2.34478 3.00002 2.99161C2.35441 3.62545 1.99358 4.49389 1.99994 5.39839C2.01135 6.1685 2.18585 6.92747 2.51202 7.62526C3.15353 8.92331 4.01913 10.0981 5.06902 11.0955C6.06002 12.095 7.20002 13.0625 8.18602 13.8761C8.45902 14.101 8.73702 14.3279 9.01502 14.5547L9.19002 14.6977C9.45702 14.9156 9.73302 15.1414 10 15.3633L10.013 15.3513L10.019 15.3463H10.025L10.034 15.3393H10.039H10.044L10.062 15.3244L10.103 15.2914L10.11 15.2854L10.121 15.2774H10.127L10.136 15.2694L10.8 14.7247L10.974 14.5817C11.255 14.3528 11.533 14.126 11.806 13.9011C12.792 13.0875 13.933 12.121 14.924 11.1165C15.9741 10.1196 16.8397 8.9451 17.481 7.64725C17.8131 6.94341 17.9901 6.1765 18.0001 5.39839C18.0042 4.49668 17.6435 3.63158 17 2.9996C16.3312 2.34985 15.4326 1.9906 14.5 2.00011C13.3619 1.99044 12.274 2.46724 11.51 3.31045L10 5.04957L8.49002 3.31045C7.72609 2.46724 6.6381 1.99044 5.50002 2.00011Z" fill="#2E3A59"/>
</svg>
