<svg width="16" height="16" viewBox="0 0 16 16" fill="none" xmlns="http://www.w3.org/2000/svg">
<path d="M8 16C3.58172 16 0 12.4183 0 8C0 3.58172 3.58172 0 8 0C12.4183 0 16 3.58172 16 8C15.9952 12.4163 12.4163 15.9952 8 16ZM6.392 7.192V8.8H7.192V12H9.608V10.4H8.8L8.808 7.1928L6.392 7.192ZM7.192 4V5.6152H8.808V4H7.192Z" fill="#4083FD"/>
</svg>
