<svg width="38" height="14" viewBox="0 0 38 14" fill="none" xmlns="http://www.w3.org/2000/svg">
<path d="M19.9549 7.94112V10.652H18.396V1.94897H21.2993C24.0541 1.94897 25.2248 2.93172 25.2248 4.89541C25.2248 6.92139 23.8532 7.94112 21.2993 7.94112H19.9549ZM19.9549 3.37938V6.51266H21.4124C22.8581 6.51266 23.6055 6.0397 23.6055 4.85843C23.6055 3.79005 22.9576 3.37938 21.4358 3.37938H19.9549Z" fill="#219F38"/>
<path d="M26.0487 4.86939C26.4603 4.55797 27.2076 4.31079 28.2807 4.31079C30.1011 4.31079 30.9985 4.93168 30.9985 6.54892V10.6513H29.6269V9.53234C29.3285 10.2544 28.5675 10.7506 27.5705 10.7506C26.312 10.7506 25.5627 10.0423 25.5627 8.82387C25.5627 7.4071 26.5968 7.0081 28.1305 7.0081H29.5391V6.73383C29.5391 5.85019 29.1158 5.57769 28.2807 5.57769C27.1335 5.57769 26.474 6.02535 26.0487 6.68516V4.86939ZM29.5391 8.46396V7.95401H28.3061C27.4456 7.95401 27.034 8.11557 27.034 8.67595C27.034 9.14891 27.3832 9.4467 28.031 9.4467C29.0162 9.44475 29.4767 8.88616 29.5391 8.46396Z" fill="#219F38"/>
<path d="M31.7192 4.43628H33.3524L35.0595 8.70023L36.4546 4.43628H37.9998L35.5064 11.3119C34.958 12.8046 34.3962 13.1393 33.5748 13.1393C33.1885 13.1393 32.765 13.0284 32.5777 12.8649V11.5104C32.765 11.6973 33.0518 11.8218 33.3251 11.8218C33.7737 11.8218 34.1094 11.524 34.3474 10.6775L31.7192 4.43628Z" fill="#219F38"/>
<path d="M4.13037 4.87662V6.78581L6.66864 8.37193L12.7425 3.9075C12.5279 3.43454 12.2586 2.99272 11.9425 2.58594L6.66864 6.46272L4.13037 4.87662Z" fill="#219F38"/>
<path d="M11.7925 6.51181C11.7943 6.55658 11.7943 6.60328 11.7943 6.64805C11.7943 9.46797 9.49404 11.7606 6.66884 11.7606C3.84364 11.7606 1.54141 9.46797 1.54141 6.64805C1.54141 3.82813 3.84166 1.5355 6.66686 1.5355C7.73801 1.5355 8.73306 1.86443 9.55647 2.42887L10.852 1.47516C9.70866 0.552756 8.2511 0 6.66489 0C2.98317 0 0 2.97758 0 6.65C0 10.3224 2.98514 13.3 6.66489 13.3C10.3466 13.3 13.3299 10.3224 13.3299 6.65C13.3299 6.24322 13.2929 5.84421 13.2225 5.459L11.7925 6.51181Z" fill="#219F38"/>
</svg>
