<svg width="18" height="22" viewBox="0 0 18 22" fill="none" xmlns="http://www.w3.org/2000/svg">
<path d="M9.82861 0.6875L11.4064 4.29688V16.8438L9.85268 21.3125L15.7274 19.6384C16.1656 19.5125 16.551 19.2477 16.8256 18.8838C17.1003 18.5198 17.2493 18.0765 17.2502 17.6206V4.37937C17.2504 3.92228 17.1014 3.47759 16.826 3.11281C16.5506 2.74803 16.1636 2.48306 15.7239 2.35813L9.82861 0.6875Z" fill="url(#paint0_linear_301_1074)"/>
<path d="M2.37938 16.7097L4.09813 15.7816C4.33384 15.652 4.53035 15.4614 4.66704 15.2298C4.80373 14.9981 4.87556 14.734 4.875 14.465V7.71031C4.87532 7.40263 4.97011 7.10247 5.14655 6.85041C5.32299 6.59835 5.57258 6.40655 5.86157 6.30093L11.4063 4.29687V2.77406C11.4056 2.30208 11.2513 1.84314 10.9666 1.46668C10.6819 1.09021 10.2824 0.816694 9.82844 0.687497C9.63512 0.631983 9.43489 0.604206 9.23375 0.604997C8.85544 0.605862 8.48371 0.70412 8.15438 0.890309L1.80875 4.51C1.4872 4.69323 1.21986 4.9583 1.03391 5.27828C0.847952 5.59827 0.750001 5.96178 0.750004 6.33187V15.7369C0.749521 15.9283 0.798846 16.1166 0.893132 16.2832C0.987418 16.4497 1.12342 16.5889 1.28778 16.6871C1.45214 16.7852 1.6392 16.8389 1.83059 16.8429C2.02197 16.8468 2.2111 16.8009 2.37938 16.7097Z" fill="url(#paint1_linear_301_1074)"/>
<path d="M11.4062 16.8438H4.85088C4.60874 16.8463 4.37413 16.9283 4.18302 17.077C3.9919 17.2257 3.85482 17.433 3.79279 17.667C3.73076 17.9011 3.7472 18.1491 3.8396 18.3729C3.93199 18.5967 4.09524 18.7841 4.30432 18.9062L8.20932 21.12C8.53096 21.3028 8.89465 21.3988 9.26463 21.3984C9.46369 21.3983 9.66168 21.3694 9.85244 21.3125C10.3009 21.1851 10.6953 20.9146 10.9758 20.5423C11.2563 20.17 11.4075 19.7162 11.4062 19.25V16.8438Z" fill="url(#paint2_linear_301_1074)"/>
<path d="M2.37938 16.7097L4.09813 15.7816C4.33384 15.652 4.53035 15.4614 4.66704 15.2298C4.80373 14.9981 4.87556 14.734 4.875 14.465V7.71031C4.87532 7.40263 4.97011 7.10247 5.14655 6.85041C5.32299 6.59835 5.57258 6.40655 5.86157 6.30093L11.4063 4.29687V2.77406C11.4056 2.30208 11.2513 1.84314 10.9666 1.46668C10.6819 1.09021 10.2824 0.816694 9.82844 0.687497C9.63512 0.631983 9.43489 0.604206 9.23375 0.604997C8.85544 0.605862 8.48371 0.70412 8.15438 0.890309L1.80875 4.51C1.4872 4.69323 1.21986 4.9583 1.03391 5.27828C0.847952 5.59827 0.750001 5.96178 0.750004 6.33187V15.7369C0.749521 15.9283 0.798846 16.1166 0.893132 16.2832C0.987418 16.4497 1.12342 16.5889 1.28778 16.6871C1.45214 16.7852 1.6392 16.8389 1.83059 16.8429C2.02197 16.8468 2.2111 16.8009 2.37938 16.7097Z" fill="url(#paint3_linear_301_1074)"/>
<path d="M11.4062 16.8438H4.85088C4.60874 16.8463 4.37413 16.9283 4.18302 17.077C3.9919 17.2257 3.85482 17.433 3.79279 17.667C3.73076 17.9011 3.7472 18.1491 3.8396 18.3729C3.93199 18.5967 4.09524 18.7841 4.30432 18.9062L8.20932 21.12C8.53096 21.3028 8.89465 21.3988 9.26463 21.3984C9.46369 21.3983 9.66168 21.3694 9.85244 21.3125C10.3009 21.1851 10.6953 20.9146 10.9758 20.5423C11.2563 20.17 11.4075 19.7162 11.4062 19.25V16.8438Z" fill="url(#paint4_linear_301_1074)"/>
<defs>
<linearGradient id="paint0_linear_301_1074" x1="13.5377" y1="-0.488125" x2="13.5377" y2="19.8688" gradientUnits="userSpaceOnUse">
<stop stop-color="#FFB900"/>
<stop offset="0.17" stop-color="#EF8400"/>
<stop offset="0.31" stop-color="#E25C01"/>
<stop offset="0.43" stop-color="#DB4401"/>
<stop offset="0.5" stop-color="#D83B01"/>
</linearGradient>
<linearGradient id="paint1_linear_301_1074" x1="9.86625" y1="0.23031" x2="-0.913747" y2="15.6234" gradientUnits="userSpaceOnUse">
<stop stop-color="#800600"/>
<stop offset="0.6" stop-color="#C72127"/>
<stop offset="0.73" stop-color="#C13959"/>
<stop offset="0.85" stop-color="#BC4B81"/>
<stop offset="0.94" stop-color="#B95799"/>
<stop offset="1" stop-color="#B85BA2"/>
</linearGradient>
<linearGradient id="paint2_linear_301_1074" x1="4.35932" y1="19.1228" x2="18.4324" y2="19.1228" gradientUnits="userSpaceOnUse">
<stop stop-color="#F32B44"/>
<stop offset="0.6" stop-color="#A4070A"/>
</linearGradient>
<linearGradient id="paint3_linear_301_1074" x1="10.0863" y1="-0.0825032" x2="7.80375" y2="3.17625" gradientUnits="userSpaceOnUse">
<stop stop-opacity="0.4"/>
<stop offset="1" stop-opacity="0"/>
</linearGradient>
<linearGradient id="paint4_linear_301_1074" x1="13.9224" y1="19.4391" x2="7.6215" y2="18.8891" gradientUnits="userSpaceOnUse">
<stop stop-opacity="0.4"/>
<stop offset="1" stop-opacity="0"/>
</linearGradient>
</defs>
</svg>
