<svg width="20" height="20" viewBox="0 0 20 20" fill="none" xmlns="http://www.w3.org/2000/svg">
<path d="M6.4165 15.4999C5.40817 15.4999 4.59234 16.3249 4.59234 17.3333C4.59234 18.3416 5.40817 19.1666 6.4165 19.1666C7.42484 19.1666 8.24984 18.3416 8.24984 17.3333C8.24984 16.3249 7.42484 15.4999 6.4165 15.4999ZM0.916504 0.833252V2.66659H2.74984L6.04984 9.62409L4.81234 11.8699C4.66567 12.1266 4.58317 12.4291 4.58317 12.7499C4.58317 13.7583 5.40817 14.5833 6.4165 14.5833H17.4165V12.7499H6.8015C6.67317 12.7499 6.57234 12.6491 6.57234 12.5208L6.59984 12.4108L7.42484 10.9166H14.254C14.9415 10.9166 15.5465 10.5408 15.8582 9.97242L19.1398 4.02325C19.2132 3.89492 19.2498 3.73909 19.2498 3.58325C19.2498 3.07909 18.8373 2.66659 18.3332 2.66659H4.77567L3.914 0.833252H0.916504ZM15.5832 15.4999C14.5748 15.4999 13.759 16.3249 13.759 17.3333C13.759 18.3416 14.5748 19.1666 15.5832 19.1666C16.5915 19.1666 17.4165 18.3416 17.4165 17.3333C17.4165 16.3249 16.5915 15.4999 15.5832 15.4999Z" fill="black"/>
</svg>
