<svg width="24" height="24" viewBox="0 0 24 24" fill="none" xmlns="http://www.w3.org/2000/svg">
<path d="M12 24C18.6274 24 24 18.6274 24 12C24 5.37258 18.6274 0 12 0C5.37258 0 0 5.37258 0 12C0 18.6274 5.37258 24 12 24Z" fill="url(#paint0_linear_164_941)"/>
<path d="M9.8002 17.5C9.4114 17.5 9.4775 17.3532 9.3434 16.983L8.2002 13.2207L17.0002 8" fill="#C8DAEA"/>
<path d="M9.7998 17.5C10.0998 17.5 10.2323 17.3628 10.3998 17.2L11.9998 15.6442L10.004 14.4407" fill="#A9C9DD"/>
<path d="M10.0037 14.441L14.8397 18.0139C15.3916 18.3184 15.7898 18.1607 15.9273 17.5016L17.8958 8.22532C18.0973 7.41732 17.5878 7.05072 17.0598 7.29042L5.50084 11.7475C4.71184 12.064 4.71654 12.5042 5.35704 12.7003L8.32333 13.6262L15.1906 9.29372C15.5148 9.09712 15.8124 9.20272 15.5682 9.41952" fill="url(#paint1_linear_164_941)"/>
<defs>
<linearGradient id="paint0_linear_164_941" x1="16.008" y1="4.008" x2="10.008" y2="18" gradientUnits="userSpaceOnUse">
<stop stop-color="#37AEE2"/>
<stop offset="1" stop-color="#1E96C8"/>
</linearGradient>
<linearGradient id="paint1_linear_164_941" x1="13.5041" y1="12.001" x2="15.3769" y2="16.2679" gradientUnits="userSpaceOnUse">
<stop stop-color="#EFF7FC"/>
<stop offset="1" stop-color="white"/>
</linearGradient>
</defs>
</svg>
